<?xml version="1.0" encoding="UTF-8"?>
<svg width="164px" height="57px" viewBox="0 0 164 57" version="1.1" xmlns="http://www.w3.org/2000/svg" xmlns:xlink="http://www.w3.org/1999/xlink">
    <!-- Generator: Sketch 52.2 (67145) - http://www.bohemiancoding.com/sketch -->
    <title>Doctor_Who_logo_2014</title>
    <desc>Created with Sketch.</desc>
    <defs>
        <filter x="-14.5%" y="-52.4%" width="129.1%" height="204.9%" filterUnits="objectBoundingBox" id="filter-1">
            <feOffset dx="3" dy="3" in="SourceAlpha" result="shadowOffsetOuter1"></feOffset>
            <feGaussianBlur stdDeviation="4" in="shadowOffsetOuter1" result="shadowBlurOuter1"></feGaussianBlur>
            <feColorMatrix values="0 0 0 0 0   0 0 0 0 0   0 0 0 0 0  0 0 0 1 0" type="matrix" in="shadowBlurOuter1" result="shadowMatrixOuter1"></feColorMatrix>
            <feMerge>
                <feMergeNode in="shadowMatrixOuter1"></feMergeNode>
                <feMergeNode in="SourceGraphic"></feMergeNode>
            </feMerge>
        </filter>
    </defs>
    <g id="Page-1" stroke="none" stroke-width="1" fill="none" fill-rule="evenodd">
        <g id="Desktop-HD" transform="translate(-85.000000, -53.000000)" fill="#FFFFFF" fill-rule="nonzero">
            <g id="Doctor_Who_logo_2014" filter="url(#filter-1)" transform="translate(90.000000, 58.000000)">
                <path d="M21.494753,0.964705882 L21.3976842,0.949632353 L21.3575385,0.943602941 C21.2976194,0.936367647 21.2460891,0.928529412 21.1867692,0.9225 C21.1490202,0.919485294 21.1082753,0.915867647 21.0669312,0.915867647 C20.9992227,0.909838235 20.9297166,0.907426471 20.8638057,0.907426471 L20.7919028,0.907426471 L20.6313198,0.915867647 C20.5995628,0.918882353 20.5714008,0.918882353 20.5414413,0.9225 C20.496502,0.926117647 20.4533603,0.935161765 20.4102186,0.936367647 L20.3724696,0.945411765 L20.3365182,0.951441176 L20.2867854,0.956867647 C20.2640162,0.961088235 20.2436437,0.9635 20.2220729,0.965911765 C20.1945707,0.974222731 20.1665456,0.980668564 20.1381862,0.985205882 C19.9745123,1.0192747 19.8141161,1.06769478 19.658834,1.12991176 C19.5809393,1.16005882 19.5054413,1.19442647 19.4377328,1.22698529 C19.3700243,1.25954412 19.3238866,1.28426471 19.2693603,1.31742647 C19.214834,1.35058824 19.1657004,1.37772059 19.1207611,1.40847059 C19.0908016,1.42655882 19.0650364,1.44826471 19.0380729,1.46876471 C19.0111093,1.48926471 18.9931336,1.50192647 18.9715628,1.52001471 C18.9248358,1.55384521 18.8800263,1.59027958 18.8373441,1.62914706 C18.7981401,1.66290847 18.7607383,1.69873303 18.7252955,1.73647059 C18.6959352,1.76902941 18.6653765,1.79676471 18.6324211,1.82811765 C18.5994656,1.85947059 18.572502,1.89504412 18.547336,1.93061765 C18.52217,1.96619118 18.487417,2.00779412 18.4568583,2.04758824 C18.4376842,2.07954412 18.4161134,2.10788235 18.3969393,2.13863235 C18.3827008,2.15901671 18.3698872,2.18037207 18.3585911,2.20254412 C18.2807395,2.33122073 18.2139853,2.46637167 18.1590607,2.60651471 C18.0883829,2.79266579 18.0397138,2.98653741 18.0140567,3.18413235 C18.0038704,3.24804412 17.9978785,3.31436765 17.9942834,3.38129412 C17.9912874,3.43314706 17.9888907,3.485 17.9888907,3.53625 L17.9888907,3.65322059 C17.9888907,3.65322059 17.9954818,3.73341176 18.0002753,3.77380882 L18.0002753,3.80455882 C18.008664,3.85038235 18.0146559,3.89379412 18.0224453,3.94263235 C18.0272389,3.96072059 18.0290364,3.97760294 18.0326316,3.99448529 C18.0422186,4.03186765 18.0518057,4.06804412 18.0613927,4.10602941 C18.0745749,4.15486765 18.0877571,4.20189706 18.103336,4.24651471 C18.1204659,4.30298052 18.1404652,4.35852421 18.1632551,4.41292647 C18.1960848,4.49576654 18.2343164,4.57633407 18.2777004,4.65410294 C18.301668,4.70052941 18.3274332,4.74394118 18.3543968,4.78855882 L18.4179109,4.88201471 C18.4478704,4.92542647 18.47783,4.96401471 18.5065911,5.00260294 C18.5353522,5.04119118 18.5665101,5.07977941 18.5994656,5.11716176 C18.6324211,5.15454412 18.6779595,5.20458824 18.7193036,5.23775 L18.7396761,5.25885294 C18.7735118,5.29329214 18.8093249,5.32570559 18.8469312,5.35592647 L18.9266235,5.42647059 C18.9553846,5.44636765 18.9865425,5.47169118 19.0182996,5.494 C19.0555788,5.52189793 19.0943877,5.5476641 19.1345425,5.57117647 C19.178988,5.60294713 19.225201,5.63213684 19.2729555,5.65860294 C19.376052,5.71738848 19.4829474,5.7691564 19.5929231,5.81355882 C19.6378623,5.82863235 19.6822024,5.84672059 19.7319352,5.863 C19.781668,5.87927941 19.8236113,5.89314706 19.8745425,5.90822059 C19.9572308,5.93414706 20.0459109,5.95585294 20.1387854,5.97514706 C20.2142834,5.98720588 20.2927773,6.00107353 20.3724696,6.01011765 C20.4521619,6.01916176 20.5384453,6.02639706 20.622332,6.03182353 L20.8110769,6.03182353 C20.9650688,6.03182353 21.1058785,6.02760294 21.2382996,6.01554412 L21.264664,6.01192647 C21.3161943,6.01192647 21.3671255,6.00227941 21.4168583,5.99685294 C21.4917571,5.98841176 21.5612632,5.97394118 21.633166,5.96369118 C21.6751093,5.95585294 21.7176518,5.94861765 21.7565992,5.93957353 C21.8172663,5.92768899 21.8772686,5.91259451 21.9363563,5.89435294 C21.9806964,5.88530882 22.0196437,5.87023529 22.0603887,5.85877941 C22.1011336,5.84732353 22.1538623,5.83044118 22.1952065,5.81536765 L22.237749,5.80089706 C22.2593198,5.79245588 22.2856842,5.78401471 22.3204372,5.77195588 C22.3551903,5.75989706 22.4169069,5.73095588 22.4756275,5.70683824 C22.5133765,5.69236765 22.5523239,5.67367647 22.5912713,5.65438235 C22.6302186,5.63508824 22.66617,5.61941176 22.7015223,5.60011765 C22.7188324,5.59325639 22.7356499,5.58519792 22.7518543,5.576 L22.7518543,4.63782353 C22.7409611,4.64315496 22.7305377,4.64940783 22.7206964,4.65651471 L22.653587,4.69751471 C22.5894737,4.73489706 22.5283563,4.77288235 22.4648421,4.80664706 C22.4013279,4.84041176 22.3312227,4.87719118 22.2653117,4.90914706 C22.1563446,4.96294526 22.0440664,5.00966827 21.929166,5.04902941 C21.7477967,5.11689814 21.5603969,5.16717078 21.3695223,5.19916176 C21.3499241,5.20430425 21.3298383,5.20733599 21.3096032,5.20820588 C21.2661329,5.21768045 21.2221011,5.22432657 21.1777814,5.22810294 C21.118097,5.23501823 21.0580988,5.23884191 20.9980243,5.23955882 C20.9626721,5.24257353 20.9273198,5.24257353 20.8973603,5.24257353 C20.8308502,5.24257353 20.7613441,5.23955882 20.6912389,5.23654412 C20.6211336,5.23352941 20.5276599,5.22147059 20.4425749,5.20820588 C20.3041321,5.18523904 20.1681242,5.14930843 20.0363239,5.10088235 C20.0165506,5.09244118 19.9985749,5.08641176 19.9764049,5.07917647 C19.9645581,5.07306005 19.9521068,5.06821002 19.9392551,5.06470588 C19.9152874,5.05204412 19.8937166,5.04541176 19.8727449,5.03455882 C19.8278057,5.01225 19.7822672,4.98511765 19.7361296,4.96220588 C19.7151579,4.94894118 19.6941862,4.93567647 19.6696194,4.92301471 C19.6450526,4.91035294 19.6264777,4.89467647 19.6031093,4.87779412 C19.5797409,4.86091176 19.5479838,4.84041176 19.5228178,4.8175 C19.4976518,4.79458824 19.4718866,4.77529412 19.450915,4.75720588 L19.4209555,4.73007353 L19.4041781,4.715 L19.3957895,4.70294118 L19.3856032,4.69329412 C19.3418623,4.64867647 19.3071093,4.60707353 19.2657652,4.56426471 C19.2477895,4.54135294 19.2298138,4.51602941 19.2112389,4.49251471 C19.1930229,4.4697224 19.1760219,4.44597332 19.1603077,4.42136765 C19.1483239,4.39905882 19.1339433,4.37735294 19.1219595,4.35444118 C19.1027854,4.32188235 19.0836113,4.28811765 19.0674332,4.25495588 C19.0512551,4.22179412 19.0434656,4.19466176 19.0284858,4.16933824 C19.0093117,4.12170588 18.9937328,4.07407353 18.9775547,4.03066176 C18.9613765,3.98725 18.9577814,3.95830882 18.9487935,3.92273529 C18.9268166,3.83521452 18.9115919,3.7461161 18.9032551,3.65623529 C18.9032551,3.62910294 18.9032551,3.59955882 18.8984615,3.57544118 C18.8984615,3.53926471 18.8948664,3.50188235 18.8948664,3.47897059 L18.8948664,3.41867647 C18.8996599,3.36380882 18.9020567,3.29808824 18.9128421,3.21910294 C18.9200324,3.17026471 18.9302186,3.11841176 18.9416032,3.06535294 C18.9501545,3.02900051 18.9607574,2.99316792 18.9733603,2.95802941 C18.9805506,2.92486765 18.9955304,2.89230882 19.0081134,2.85492647 C19.016502,2.83020588 19.0272874,2.80910294 19.0368745,2.78558824 C19.0506559,2.75182353 19.0656356,2.72107353 19.0830121,2.68670588 C19.0937976,2.66560294 19.1105749,2.63967647 19.1219595,2.61676471 C19.1555142,2.56189706 19.1914656,2.50944118 19.2292146,2.45517647 C19.2411984,2.43347059 19.2579757,2.41779412 19.2723563,2.39488235 C19.2867368,2.37197059 19.3148988,2.34845588 19.3364696,2.32433824 C19.3469358,2.31124035 19.3585684,2.29913127 19.3712227,2.28816176 C19.5340225,2.1223905 19.7262956,1.98883841 19.9380567,1.89444118 C19.9686154,1.87936765 19.9979757,1.86610294 20.030332,1.85163235 C20.0626883,1.83716176 20.0944453,1.82992647 20.1274008,1.82027941 C20.1603563,1.81063235 20.1975061,1.79797059 20.2316599,1.78591176 C20.2658138,1.77385294 20.29817,1.76963235 20.3311255,1.76179412 C20.364081,1.75395588 20.3976356,1.74611765 20.4317895,1.74069118 C20.4659433,1.73526471 20.5030931,1.73164706 20.5378462,1.72501471 C20.5738285,1.7181372 20.6102908,1.71410528 20.6468988,1.71295588 C20.7146073,1.70813235 20.7823158,1.7015 20.8482267,1.7015 L20.9129393,1.7015 C20.9620729,1.70572059 21.0094089,1.70933824 21.0561457,1.71054412 C21.0897004,1.71054412 21.1160648,1.71054412 21.1502186,1.71597059 C21.2101377,1.72260294 21.2670607,1.73225 21.3221862,1.73767647 C21.3773117,1.74310294 21.4168583,1.75455882 21.4605992,1.76420588 C21.5271093,1.77807353 21.5870283,1.79013235 21.6403563,1.80761765 C21.6775061,1.81726471 21.7128583,1.8245 21.7422186,1.83475 C21.7883563,1.84741176 21.8261053,1.86067647 21.8554656,1.86911765 L21.938753,1.89866176 C21.9848907,1.91795588 22.026834,1.93363235 22.0735709,1.94991176 C22.1334899,1.97764706 22.1886154,2.00176471 22.2449393,2.02889706 C22.2898785,2.04819118 22.3318219,2.06869118 22.3743644,2.08919118 C22.4067206,2.10547059 22.4384777,2.12416176 22.4690364,2.13742647 C22.521166,2.16395588 22.5637085,2.18927941 22.6002591,2.20797059 L22.6949312,2.25861765 L22.6949312,1.33370588 C22.6949312,1.33370588 22.6380081,1.30958824 22.5379433,1.26919118 C22.4942024,1.25472059 22.4414737,1.23422059 22.3833522,1.21552941 C22.3491984,1.20347059 22.3156437,1.19080882 22.2778947,1.17633824 C22.250332,1.1685 22.2179757,1.15583824 22.187417,1.14679412 C22.1568583,1.13775 22.1167126,1.12147059 22.0789636,1.11061765 C22.052,1.10639706 22.0232389,1.09433824 21.9944777,1.08830882 L21.9687126,1.08047059 L21.8854251,1.05454412 C21.8518704,1.04369118 21.8195142,1.04007353 21.781166,1.02620588 C21.7607935,1.02198529 21.7386235,1.01897059 21.7170526,1.01354412 C21.6817004,1.00510294 21.6439514,0.997264706 21.6056032,0.990632353 C21.5672551,0.984 21.5307045,0.974352941 21.4857652,0.966514706 L21.494753,0.964705882 Z M16.872,0.00180882353 L24.2072874,0.00180882353 L24.2072874,6.94286765 L16.881587,6.94286765 L16.881587,0 L16.872,0.00180882353 Z M11.2396113,3.83108824 L11.2396113,5.19735294 L12.1647611,5.19735294 C12.195919,5.19735294 12.2348664,5.19252941 12.2875951,5.18710294 C12.4040598,5.17837533 12.5189905,5.15508326 12.6297328,5.11776471 C12.7420827,5.08479912 12.8448604,5.02502169 12.9293279,4.94351471 C12.9585109,4.91315714 12.9849777,4.88027006 13.0084211,4.84523529 C13.0614098,4.75939944 13.09211,4.66153919 13.0977004,4.56064706 L13.0977004,4.48166176 C13.0965103,4.43688181 13.0902788,4.39238197 13.0791255,4.34901471 C13.059558,4.2725398 13.0242419,4.2010547 12.9754656,4.13919118 C12.9646802,4.12713235 12.9550931,4.11447059 12.9437085,4.10241176 C12.918712,4.07725372 12.8916527,4.05426056 12.8628178,4.03367647 C12.8128935,3.99629341 12.7582981,3.96568267 12.7004372,3.94263235 C12.6155834,3.90511738 12.5264167,3.87838223 12.434996,3.86304412 C12.3833779,3.85247124 12.3311424,3.84522124 12.2786073,3.84133824 C12.2460496,3.83654236 12.2132345,3.83372353 12.1803401,3.83289706 C12.1467854,3.82988235 12.1168259,3.82988235 12.0850688,3.82988235 L11.235417,3.82988235 L11.2396113,3.83108824 Z M11.235417,1.75697059 L11.235417,3.04967647 L11.7441296,3.04967647 C11.7722915,3.04967647 11.8100405,3.04967647 11.8388016,3.04364706 C11.9502094,3.03704685 12.0607502,3.01988752 12.1689555,2.99239706 C12.1941215,2.98214706 12.2180891,2.97672059 12.2420567,2.96767647 C12.3373997,2.9354773 12.4249697,2.88351017 12.4991093,2.81513235 C12.5470992,2.76320709 12.585998,2.7034743 12.6141538,2.63847059 C12.6391939,2.57524851 12.6545484,2.5085669 12.6596923,2.44070588 C12.6626883,2.39548529 12.6626883,2.36835294 12.6626883,2.36835294 C12.6642144,2.3502973 12.6642144,2.33214388 12.6626883,2.31408824 C12.6602318,2.23179456 12.6408497,2.15090666 12.6057652,2.07652941 C12.5815303,2.03078338 12.5504032,1.9890886 12.5134899,1.95292647 C12.4662013,1.90634137 12.4096313,1.87037851 12.3475142,1.84741176 C12.2293205,1.79553305 12.1024837,1.76648887 11.9736194,1.76179412 C11.9256842,1.75697059 11.8789474,1.75697059 11.84,1.75697059 L11.2521943,1.75697059 L11.235417,1.75697059 Z M10.3444211,0.973147059 L10.3444211,5.97755882 L12.2156923,5.97755882 C12.7283628,5.98890839 13.2286146,5.81812521 13.628583,5.49520588 C13.8694981,5.26169227 14.0063023,4.94004932 14.0078704,4.60345588 C14.0133632,4.2750075 13.8879994,3.95800763 13.6597409,3.72316176 C13.4542473,3.52343603 13.2000238,3.3818019 12.9227368,3.31255882 C13.0437719,3.25134193 13.1550491,3.17228968 13.2528907,3.07801471 C13.470431,2.86811516 13.5832009,2.57126439 13.5602753,2.26886765 C13.5602338,1.95305848 13.432372,1.65088729 13.2061538,1.43198529 C12.8719787,1.11064532 12.4192981,0.94488447 11.9580405,0.974955882 L10.3605992,0.974955882 L10.3444211,0.973147059 Z M8.43899595,0 L15.7658947,0 L15.7658947,6.94286765 L8.43899595,6.94286765 L8.43899595,0 Z M2.81140081,3.82927941 L2.81140081,5.19554412 L3.7371498,5.19554412 C3.76651012,5.19554412 3.80905263,5.19072059 3.85698785,5.18529412 C3.97361063,5.176293 4.08870651,5.15300824 4.1997247,5.11595588 C4.31146889,5.08157702 4.41393768,5.0219793 4.49931984,4.94170588 C4.52750217,4.91125634 4.55296617,4.87836961 4.575417,4.84342647 C4.631673,4.75828433 4.66548838,4.66014531 4.67368421,4.55823529 C4.67454851,4.54397894 4.67454851,4.52968283 4.67368421,4.51542647 C4.67448211,4.50418589 4.67448211,4.49290235 4.67368421,4.48166176 C4.67387692,4.436859 4.6680315,4.39223682 4.65630769,4.34901471 C4.63523046,4.272884 4.59961413,4.20161502 4.55144939,4.13919118 C4.54246154,4.12713235 4.53047773,4.11447059 4.51969231,4.10241176 C4.49408362,4.07769597 4.46685946,4.05473288 4.43820243,4.03367647 C4.38851331,3.99559389 4.3336205,3.96492954 4.27522267,3.94263235 C4.19109996,3.90539365 4.10276049,3.87866516 4.01217814,3.86304412 C3.96090484,3.85281815 3.90908902,3.84557087 3.85698785,3.84133824 C3.82301877,3.83658938 3.78881066,3.83377118 3.75452632,3.83289706 C3.72363788,3.83032734 3.69264063,3.82932117 3.66165182,3.82988235 L2.81140081,3.82988235 L2.81140081,3.82927941 Z M2.81140081,1.75697059 L2.81140081,3.04967647 L3.30213765,3.04967647 C3.33149798,3.04967647 3.3668502,3.04967647 3.39740891,3.04364706 C3.50919005,3.03684592 3.62011013,3.01968999 3.72876113,2.99239706 C3.75033198,2.98214706 3.7742996,2.97672059 3.80006478,2.96767647 C3.89575389,2.93624425 3.9834773,2.88418607 4.05711741,2.81513235 C4.10680931,2.76444926 4.14610375,2.70442158 4.17276113,2.63847059 C4.19914505,2.5756492 4.21474564,2.50877875 4.21889879,2.44070588 C4.22230894,2.41672786 4.22430972,2.39256821 4.22489069,2.36835294 C4.22459441,2.35021561 4.22339452,2.33210463 4.22129555,2.31408824 C4.21958025,2.23169627 4.20016123,2.15065427 4.16437247,2.07652941 C4.14158864,2.03034574 4.1109701,1.98851731 4.07389474,1.95292647 C4.02503541,1.90718752 3.96786696,1.87136151 3.90552227,1.84741176 C3.78752827,1.79556558 3.66089374,1.76652116 3.53222672,1.76179412 C3.48309312,1.75697059 3.4345587,1.75697059 3.39740891,1.75697059 L2.81140081,1.75697059 Z M1.92280162,0.973147059 L1.92280162,5.97755882 L3.7922753,5.97755882 C4.30478088,5.98902496 4.80488262,5.8182206 5.2045668,5.49520588 C5.44279748,5.26492722 5.58016404,4.94871614 5.58634699,4.61636664 C5.59252994,4.28401715 5.46702093,3.96285418 5.23752227,3.72376471 C5.03172557,3.52413151 4.77733648,3.38252027 4.49991903,3.31316176 C4.62082519,3.25142576 4.73222809,3.17242756 4.83067206,3.07861765 C5.04478065,2.8666298 5.15599621,2.57098887 5.13506073,2.26947059 C5.1354102,1.95430649 5.00896606,1.65242084 4.78453441,1.43258824 C4.4486749,1.11122301 3.99472776,0.945555103 3.53222672,0.975558824 L1.92220243,0.975558824 L1.92280162,0.973147059 Z M0,0 L7.32689879,0 L7.32689879,6.94286765 L0,6.94286765 L0,0 Z M23.5373927,34.5171765 C23.5373927,35.2882269 22.9162213,35.9132868 22.1499676,35.9132868 C21.3837139,35.9132868 20.7625425,35.2882269 20.7625425,34.5171765 L20.7625425,18.2751471 C20.7625425,17.5040966 21.3837139,16.8790368 22.1499676,16.8790368 C22.9162213,16.8790368 23.5373927,17.5040966 23.5373927,18.2751471 L23.5373927,34.5171765 Z M24.5110769,11.7790588 L19.7888583,11.7790588 C17.4992086,11.7918714 15.6394263,13.6434754 15.6023158,15.9471912 L15.6023158,36.8324706 C15.6394317,39.1360865 17.499306,40.9875141 19.7888583,41 L24.5110769,41 C26.8005018,40.9875273 28.6604584,39.1365505 28.6982186,36.8330735 L28.6982186,15.9465882 C28.6611026,13.6426394 26.8009601,11.7909418 24.5110769,11.7784559 L24.5110769,11.7790588 Z M38.3721457,30.9972059 L43.5581377,30.9972059 L43.5581377,36.8312647 C43.5213384,39.1356827 41.6607427,40.9878343 39.3703968,41 L34.6487773,41 C32.3519445,41.0047259 30.4819934,39.1429978 30.4622348,36.8318676 L30.4622348,15.9465882 C30.4823208,13.6356941 32.3521762,11.7743306 34.6487773,11.7790588 L39.3703968,11.7790588 C41.6600508,11.7915382 43.5201003,13.6428753 43.5575385,15.9465882 L43.5575385,21.6932206 L38.3721457,21.6932206 L38.3721457,18.2751471 C38.3721457,17.5040966 37.7509744,16.8790368 36.9847206,16.8790368 C36.2184669,16.8790368 35.5972955,17.5040966 35.5972955,18.2751471 L35.5972955,34.5141618 C35.5972955,35.2852122 36.2184669,35.9102721 36.9847206,35.9102721 C37.7509744,35.9102721 38.3721457,35.2852122 38.3721457,34.5141618 L38.3721457,30.9972059 Z M66.4292308,34.5141618 C66.4396751,35.0198601 66.1775415,35.4917078 65.7439757,35.7476396 C65.3104099,36.0035714 64.7732015,36.0035714 64.3396357,35.7476396 C63.9060699,35.4917078 63.6439362,35.0198601 63.6543806,34.5141618 L63.6543806,18.2751471 C63.6439362,17.7694488 63.9060699,17.297601 64.3396357,17.0416692 C64.7732015,16.7857375 65.3104099,16.7857375 65.7439757,17.0416692 C66.1775415,17.297601 66.4396751,17.7694488 66.4292308,18.2751471 L66.4292308,34.5141618 Z M67.402915,11.7790588 L62.6806964,11.7790588 C60.3910466,11.7918714 58.5312643,13.6434754 58.4941538,15.9471912 L58.4941538,36.8324706 C58.5312698,39.1360865 60.391144,40.9875141 62.6806964,41 L67.402915,41 C69.6923399,40.9875273 71.5522964,39.1365505 71.5900567,36.8330735 L71.5900567,15.9465882 C71.5529407,13.6426394 69.6927982,11.7909418 67.402915,11.7784559 L67.402915,11.7790588 Z M53.7641457,17.5232794 C53.7644761,17.1641153 54.0537424,16.8730383 54.4106721,16.8727059 L57.0890526,16.8727059 L57.0890526,11.7736324 L44.9392713,11.7736324 L44.9392713,16.8727059 L47.6122591,16.8727059 C47.9688576,16.873371 48.2575877,17.164448 48.257587,17.5232794 L48.257587,40.9939706 L53.7671417,40.9939706 L53.7671417,17.5238824 L53.7641457,17.5232794 Z M142.839773,34.5135588 C142.850218,35.0192571 142.588084,35.4911049 142.154518,35.7470366 C141.720952,36.0029684 141.183744,36.0029684 140.750178,35.7470366 C140.316612,35.4911049 140.054479,35.0192571 140.064923,34.5135588 L140.064923,18.2751471 C140.054479,17.7694488 140.316612,17.297601 140.750178,17.0416692 C141.183744,16.7857375 141.720952,16.7857375 142.154518,17.0416692 C142.588084,17.297601 142.850218,17.7694488 142.839773,18.2751471 L142.839773,34.5141618 L142.839773,34.5135588 Z M143.813457,11.7784559 L139.09064,11.7784559 C136.801219,11.7912619 134.94153,13.6425055 134.904097,15.9459853 L134.904097,36.8318676 C134.940891,39.1357195 136.800858,40.9875076 139.09064,41 L143.813457,41 C146.10301,40.9875141 147.962884,39.1360865 148,36.8324706 L148,15.9465882 C147.962884,13.6429724 146.10301,11.7915447 143.813457,11.7790588 L143.813457,11.7784559 Z M133.143676,39.3720588 L132.438429,39.3720588 L132.438429,13.4057941 L133.140081,13.4057941 L133.140081,11.7808676 L127.188923,11.7808676 L127.188923,23.1529412 C127.188923,23.8998494 126.587201,24.5053382 125.844939,24.5053382 C125.102678,24.5053382 124.500955,23.8998494 124.500955,23.1529412 L124.500955,11.7808676 L119.34013,11.7808676 L119.34013,41 L124.538704,41 L124.538704,29.4922647 C124.528494,29.009126 124.778802,28.558225 125.192991,28.313641 C125.60718,28.069057 126.120448,28.069057 126.534637,28.313641 C126.948826,28.558225 127.199133,29.009126 127.188923,29.4922647 L127.188923,41 L133.141279,41 L133.141279,39.3720588 L133.143676,39.3720588 Z M116.874462,13.4033824 L117.57851,13.4033824 L117.57851,11.7784559 L111.6657,11.7784559 L111.6657,34.5334559 C111.676055,35.0304778 111.41847,35.4942698 110.992357,35.7458375 C110.566243,35.9974051 110.038242,35.9974051 109.612129,35.7458375 C109.186015,35.4942698 108.92843,35.0304778 108.938785,34.5334559 L108.938785,11.7790588 L103.827692,11.7790588 L103.827692,34.5334559 C103.838047,35.0304778 103.580462,35.4942698 103.154349,35.7458375 C102.728235,35.9974051 102.200234,35.9974051 101.774121,35.7458375 C101.348007,35.4942698 101.090422,35.0304778 101.100777,34.5334559 L101.100777,11.7790588 L95.9902834,11.7790588 L95.9902834,36.8270441 C95.9883731,37.9321984 96.4235297,38.9927029 97.1997379,39.7745619 C97.9759462,40.556421 99.0294118,40.995376 100.127692,40.9945735 L117.579109,40.9945746 L117.579109,39.3678382 L116.874462,39.3678382 L116.874462,13.4033824 Z M9.6505587,11.7790588 L0.035951417,11.7790588 L0.035951417,13.4021765 L0.742396761,13.4021765 L0.742396761,39.3750735 L0.035951417,39.3750735 L0.035951417,41 L9.6505587,41 C11.9404462,40.9878473 13.8008559,39.1364166 13.8382996,36.8324706 L13.8382996,15.9465882 C13.8011781,13.6424062 11.9406754,11.7906151 9.6505587,11.7784559 L9.6505587,11.7790588 Z M8.68466397,34.9494853 C8.68466768,35.4808681 8.25762797,35.9121985 7.72955466,35.9141912 L6.20281781,35.9141912 C6.06373301,35.9138587 5.9511575,35.8003088 5.95115789,35.6603529 L5.95115789,17.1313676 C5.95115789,16.9915097 6.06382988,16.8781324 6.20281781,16.8781324 L7.72955466,16.8781324 C8.25762797,16.880125 8.68466768,17.3114555 8.68466397,17.8428382 L8.68466397,34.9494853 Z M87.1510283,29.4410147 C87.1251839,27.698922 85.7581055,26.2770881 84.0286478,26.1935735 L84.0286478,24.7688235 C85.7635951,24.6955488 87.1334057,23.2602842 87.1360486,21.5129412 L87.1510283,15.9007647 C87.0336616,13.6730354 85.264674,11.8934943 83.0507692,11.7760441 L73.3534737,11.7760441 L73.3534737,13.3852941 L74.0557247,13.3852941 L74.0557247,39.3889412 L73.3534737,39.3889412 L73.3534737,40.9993971 L79.3903158,40.9993971 L79.3903158,18.0743676 C79.3888612,17.4037397 79.927933,16.8588922 80.5943888,16.8573937 C81.2608447,16.8558953 81.8023307,17.3983134 81.8038543,18.0689412 L81.8038543,40.9981912 L87.1522267,40.9981912 L87.1510283,29.4410147 Z" id="Shape"></path>
            </g>
        </g>
    </g>
</svg>